Package rvecs • rvec
…
draws_mean(beta)
#> [1] 0.1 0.2

2.2 Divorce rates

Our next example is more involved, and includes the use of some standard tidyverse packages.

library(dplyr, warn.conflicts = FALSE)
library(tidyr)
library(ggplot2)

We analyse a posterior sample from a Bayesian model of divorce rates in New Zealand. The rates are divorces per thousand people per year, disaggregated by age and sex.

divorce
#> # A tibble: 22,000 × 4
#>    age   sex     draw   rate
#>    <fct> <chr>  <int>  <dbl>
#>  1 15-19 Female     1 0.0462
#>  2 15-19 Female     2 0.0369
#>  3 15-19 Female     3 0.0448
#>  4 15-19 Female     4 0.0411
#>  5 15-19 Female     5 0.0333
#>  6 15-19 Female     6 0.0511
#>  7 15-19 Female     7 0.0249
#>  8 15-19 Female     8 0.0280
#>  9 15-19 Female     9 0.0339
#> 10 15-19 Female    10 0.0425
#> # ℹ 21,990 more rows

First we convert the data from a ‘data base’ format, where each row describes a single draw, to an rvec format, where multiple draws are folded into an rvec.

divorce_rv <- divorce %>%
  collapse_to_rvec(value = rate)
divorce_rv
#> # A tibble: 22 × 3
#>    age   sex                    rate
#>    <fct> <chr>          <rdbl<1000>>
#>  1 15-19 Female 0.036 (0.019, 0.068)
#>  2 20-24 Female    0.67 (0.58, 0.78)
#>  3 25-29 Female         3.2 (3, 3.4)
#>  4 30-34 Female       5.8 (5.5, 6.1)
#>  5 35-39 Female       6.5 (6.2, 6.9)
#>  6 40-44 Female       7.1 (6.8, 7.4)
#>  7 45-49 Female       7.2 (6.9, 7.6)
#>  8 50-54 Female         6 (5.8, 6.3)
#>  9 55-59 Female       4.4 (4.2, 4.7)
#> 10 60-64 Female         2.7 (2.5, 3)
#> # ℹ 12 more rows
…
[draws_ci()]

[draws_quantile()]

[draws_fun()]

Internally, most of these functions call functions from matrixStats, which makes them fast.

For most purposes, [draws_ci()], which calculates credible intervals, is the most useful of the draws functions,

divorce_rv <- divorce %>%
  collapse_to_rvec(value = rate)
divorce_rv
#> # A tibble: 22 × 3
#>    age   sex                    rate
#>    <fct> <chr>          <rdbl<1000>>
#>  1 15-19 Female 0.036 (0.019, 0.068)
#>  2 20-24 Female    0.67 (0.58, 0.78)
#>  3 25-29 Female         3.2 (3, 3.4)
#>  4 30-34 Female       5.8 (5.5, 6.1)
#>  5 35-39 Female       6.5 (6.2, 6.9)
#>  6 40-44 Female       7.1 (6.8, 7.4)
#>  7 45-49 Female       7.2 (6.9, 7.6)
#>  8 50-54 Female         6 (5.8, 6.3)
#>  9 55-59 Female       4.4 (4.2, 4.7)
#> 10 60-64 Female         2.7 (2.5, 3)
#> # ℹ 12 more rows
divorce_rv %>%
  mutate(draws_ci(rate))
#> # A tibble: 22 × 6
#>    age   sex                    rate rate.lower rate.mid rate.upper
#>    <fct> <chr>          <rdbl<1000>>      <dbl>    <dbl>      <dbl>
#>  1 15-19 Female 0.036 (0.019, 0.068)     0.0193   0.0360     0.0678
#>  2 20-24 Female    0.67 (0.58, 0.78)     0.579    0.673      0.782 
#>  3 25-29 Female         3.2 (3, 3.4)     3.02     3.22       3.45  
#>  4 30-34 Female       5.8 (5.5, 6.1)     5.54     5.80       6.06  
#>  5 35-39 Female       6.5 (6.2, 6.9)     6.21     6.54       6.86  
#>  6 40-44 Female       7.1 (6.8, 7.4)     6.85     7.13       7.42  
#>  7 45-49 Female       7.2 (6.9, 7.6)     6.87     7.22       7.57  
#>  8 50-54 Female         6 (5.8, 6.3)     5.77     6.03       6.33  
#>  9 55-59 Female       4.4 (4.2, 4.7)     4.17     4.40       4.66  
#> 10 60-64 Female         2.7 (2.5, 3)     2.48     2.72       2.99  
#> # ℹ 12 more rows
…
